<?xml version="1.0" encoding="UTF-8" standalone="no"?>
<svg
   xmlns:dc="http://purl.org/dc/elements/1.1/"
   xmlns:cc="http://creativecommons.org/ns#"
   xmlns:rdf="http://www.w3.org/1999/02/22-rdf-syntax-ns#"
   xmlns:svg="http://www.w3.org/2000/svg"
   xmlns="http://www.w3.org/2000/svg"
   xmlns:sodipodi="http://sodipodi.sourceforge.net/DTD/sodipodi-0.dtd"
   xmlns:inkscape="http://www.inkscape.org/namespaces/inkscape"
   viewBox="0 0 499.99182 500"
   version="1.1"
   id="svg53"
   sodipodi:docname="img_icon_splinterlands.svg"
   width="499.99182"
   height="500"
   inkscape:version="0.92.5 (2060ec1f9f, 2020-04-08)">
  <metadata
     id="metadata57">
    <rdf:RDF>
      <cc:Work
         rdf:about="">
        <dc:format>image/svg+xml</dc:format>
        <dc:type
           rdf:resource="http://purl.org/dc/dcmitype/StillImage" />
        <dc:title></dc:title>
      </cc:Work>
    </rdf:RDF>
  </metadata>
  <sodipodi:namedview
     pagecolor="#ffffff"
     bordercolor="#666666"
     borderopacity="1"
     objecttolerance="10"
     gridtolerance="10"
     guidetolerance="10"
     inkscape:pageopacity="0"
     inkscape:pageshadow="2"
     inkscape:window-width="1984"
     inkscape:window-height="1141"
     id="namedview55"
     showgrid="false"
     fit-margin-top="0"
     fit-margin-left="0"
     fit-margin-right="0"
     fit-margin-bottom="0"
     inkscape:zoom="0.236"
     inkscape:cx="508.46639"
     inkscape:cy="-4.5474735e-13"
     inkscape:window-x="0"
     inkscape:window-y="0"
     inkscape:window-maximized="0"
     inkscape:current-layer="g48" />
  <defs
     id="defs18">
    <style
       id="style2">.cls-1{fill:none;}.cls-2{clip-path:url(#clip-path);}.cls-3{fill:#fbb400;}.cls-4{clip-path:url(#clip-path-3);}.cls-5{fill:url(#linear-gradient);}.cls-6{clip-path:url(#clip-path-4);}.cls-7{fill:#fff;}</style>
    <clipPath
       id="clip-path"
       transform="translate(250 250)">
      <rect
         class="cls-1"
         width="500"
         height="500"
         id="rect4"
         x="0"
         y="0"
         style="fill:none" />
    </clipPath>
    <clipPath
       id="clip-path-3"
       transform="translate(250 250)">
      <path
         class="cls-1"
         d="M 160.48,461.93 A 230.78,230.78 0 1 1 250,480 229.43,229.43 0 0 1 160.48,461.93 M 250,0 C 111.93,0 0,111.93 0,250 0,388.07 111.93,500 250,500 388.07,500 500,388.07 500,250 500,111.93 388.07,0 250,0 Z"
         id="path7"
         inkscape:connector-curvature="0"
         style="fill:none" />
    </clipPath>
    <linearGradient
       id="linear-gradient"
       x1="-571.40002"
       y1="-1064.01"
       x2="-570.40002"
       y2="-1064.01"
       gradientTransform="matrix(500,0,0,-500,285700.72,-531756.88)"
       gradientUnits="userSpaceOnUse">
      <stop
         offset="0"
         stop-color="#ffcf00"
         id="stop10" />
      <stop
         offset="1"
         stop-color="#ff6a00"
         id="stop12" />
    </linearGradient>
    <clipPath
       id="clip-path-4"
       transform="translate(250 250)">
      <rect
         class="cls-1"
         x="130.34"
         y="122.98"
         width="239.32001"
         height="254.03"
         id="rect15"
         style="fill:none" />
    </clipPath>
  </defs>
  <g
     id="Layer_2"
     data-name="Layer 2"
     transform="translate(-0.0081813)">
    <g
       id="Layer_11"
       data-name="Layer 11">
      <g
         id="Artwork_172"
         data-name="Artwork 172">
        <g
           class="cls-2"
           clip-path="url(#clip-path)"
           id="g48">
          <g
             class="cls-2"
             clip-path="url(#clip-path)"
             id="g24">
            <path
               d="M 250,490 A 240,240 0 0 1 80.29,80.29 240.00618,240.00618 0 0 1 419.71,419.71 238.47,238.47 0 0 1 250,490"
               transform="translate(250,250)"
               id="path20"
               inkscape:connector-curvature="0" />
            <path
               class="cls-3"
               d="M 250,20 A 230.06,230.06 0 0 1 339.52,461.93 230.06,230.06 0 0 1 160.52,38.07 228.49,228.49 0 0 1 250,20 M 250,0 C 111.93,0 0,111.93 0,250 0,388.07 111.93,500 250,500 388.07,500 500,388.07 500,250 500,111.93 388.07,0 250,0"
               transform="translate(250,250)"
               id="path22"
               inkscape:connector-curvature="0"
               style="fill:#fbb400" />
          </g>
          <g
             class="cls-4"
             clip-path="url(#clip-path-3)"
             id="g28">
            <rect
               class="cls-5"
               x="-103.55"
               y="-103.55"
               width="707.10999"
               height="707.10999"
               transform="rotate(-45,676.77839,73.219212)"
               id="rect26"
               style="fill:url(#linear-gradient)" />
          </g>
          <g
             class="cls-6"
             clip-path="url(#clip-path-4)"
             id="g46">
            <polygon
               class="cls-7"
               points="436.49,627.02 500,627.02 468.25,566.6 468.06,566.95 438.08,624 "
               id="polygon30"
               style="fill:#ffffff" />
            <path
               class="cls-7"
               d="m 155.94,283 -1.2,-3.7 -1.53,4.7 -22.87,70.4 a 48.25,48.25 0 0 0 40.91,22.6 h 15.24 l -0.72,-2.23 z"
               transform="translate(250,250)"
               id="path32"
               inkscape:connector-curvature="0"
               style="fill:#ffffff" />
            <polygon
               class="cls-7"
               points="500,627.02 563.51,627.02 561.92,624 531.94,566.95 531.75,566.6 "
               id="polygon34"
               style="fill:#ffffff" />
            <path
               class="cls-7"
               d="m 345.26,279.26 -1.2,3.7 -29.83,91.83 -0.72,2.23 h 15.24 a 48.25,48.25 0 0 0 40.91,-22.65 L 346.79,284 Z"
               transform="translate(250,250)"
               id="path36"
               inkscape:connector-curvature="0"
               style="fill:#ffffff" />
            <polygon
               class="cls-7"
               points="500,372.98 436.49,372.98 438.08,376 468.06,433.05 468.25,433.4 "
               id="polygon38"
               style="fill:#ffffff" />
            <polygon
               class="cls-7"
               points="563.51,372.98 500,372.98 531.75,433.4 531.94,433.05 561.92,376 "
               id="polygon40"
               style="fill:#ffffff" />
            <path
               class="cls-7"
               d="m 154.74,220.74 1.2,-3.7 29.83,-91.83 0.72,-2.23 h -15.24 a 48.25,48.25 0 0 0 -40.91,22.65 L 153.21,216 Z"
               transform="translate(250,250)"
               id="path42"
               inkscape:connector-curvature="0"
               style="fill:#ffffff" />
            <path
               class="cls-7"
               d="m 344.06,217 1.2,3.7 1.53,-4.71 22.87,-70.4 A 48.25,48.25 0 0 0 328.75,123 h -15.24 l 0.72,2.23 z"
               transform="translate(250,250)"
               id="path44"
               inkscape:connector-curvature="0"
               style="fill:#ffffff" />
          </g>
        </g>
      </g>
    </g>
  </g>
</svg>
